{
  "name": "flogo-nats",
  "type": "flogo:activity",
  "version": "0.1.0",
  "title": "Send NATS Core Messages",
  "author": "Pfister Andreas <pfistare@schaeffler.com>",
  "description": "Simple NATS Activity",
  "settings": [
    {
      "name": "brokerUrls",
      "type": "string",
      "description": "The NATS cluster to connect to"
    },
    {
      "name": "user",
      "type": "string",
      "description": "If connecting to a SASL enabled port, the user id to use for authentication"
    },
    {
      "name": "password",
      "type": "string",
      "description": "If connecting to a SASL enabled port, the password to use for authentication"
    },
    {
      "name": "trustStore",
      "type": "string",
      "description": "If connecting to a TLS secured port, the directory containing the certificates representing the trust chain for the connection. This is usually just the CACert used to sign the server's certificate"
    },
    {
      "name": "topic",
      "type": "string",
      "description:": "The topic to publish to"
    }
  ],
  "input": [
    {
      "name": "message",
      "type": "[]byte",
      "description": "The message to send"
    }
  ]
}
